{
    "body": {
        "categories": {
            "href": "https://api.spotify.com/v1/browse/categories?offset=0&limit=20",
            "items": [
                {
                    "href": "https://api.spotify.com/v1/browse/categories/toplists",
                    "icons": [
                        {
                            "height": 275,
                            "url": "https://t.scdn.co/media/derived/toplists_11160599e6a04ac5d6f2757f5511778f_0_0_275_275.jpg",
                            "width": 275
                        }
                    ],
                    "id": "toplists",
                    "name": "Top Lists"
                },
                {
                    "href": "https://api.spotify.com/v1/browse/categories/holidays",
                    "icons": [
                        {
                            "height": null,
                            "url": "https://t.scdn.co/images/dec76a385201436281efb6796a54f479.jpeg",
                            "width": null
                        }
                    ],
                    "id": "holidays",
                    "name": "Happy Holidays"
                },
                {
                    "href": "https://api.spotify.com/v1/browse/categories/wellness",
                    "icons": [
                        {
                            "height": null,
                            "url": "https://t.scdn.co/images/3710b68657574bc79df14bd74629e5ac",
                            "width": null
                        }
                    ],
                    "id": "wellness",
                    "name": "Wellness"
                },
                {
                    "href": "https://api.spotify.com/v1/browse/categories/pop",
                    "icons": [
                        {
                            "height": 274,
                            "url": "https://t.scdn.co/media/derived/pop-274x274_447148649685019f5e2a03a39e78ba52_0_0_274_274.jpg",
                            "width": 274
                        }
                    ],
                    "id": "pop",
                    "name": "Pop"
                },
                {
                    "href": "https://api.spotify.com/v1/browse/categories/opm",
                    "icons": [
                        {
                            "height": null,
                            "url": "https://t.scdn.co/images/112e9e66f9ee404aa7e93f2ee193afe5.jpeg",
                            "width": null
                        }
                    ],
                    "id": "opm",
                    "name": "OPM"
                },
                {
                    "href": "https://api.spotify.com/v1/browse/categories/hiphop",
                    "icons": [
                        {
                            "height": 274,
                            "url": "https://t.scdn.co/media/original/hip-274_0a661854d61e29eace5fe63f73495e68_274x274.jpg",
                            "width": 274
                        }
                    ],
                    "id": "hiphop",
                    "name": "Hip-Hop"
                },
                {
                    "href": "https://api.spotify.com/v1/browse/categories/rnb",
                    "icons": [
                        {
                            "height": 274,
                            "url": "https://t.scdn.co/media/derived/r-b-274x274_fd56efa72f4f63764b011b68121581d8_0_0_274_274.jpg",
                            "width": 274
                        }
                    ],
                    "id": "rnb",
                    "name": "R&B"
                },
                {
                    "href": "https://api.spotify.com/v1/browse/categories/music_and_talk",
                    "icons": [
                        {
                            "height": null,
                            "url": "https://t.scdn.co/images/487ecec9ae594690a55c0150b1958eff",
                            "width": null
                        }
                    ],
                    "id": "music_and_talk",
                    "name": "Music + Talk"
                },
                {
                    "href": "https://api.spotify.com/v1/browse/categories/in_the_car",
                    "icons": [
                        {
                            "height": null,
                            "url": "https://t.scdn.co/images/57017d435c344bb28efba325b7c9e7c6.jpeg",
                            "width": null
                        }
                    ],
                    "id": "in_the_car",
                    "name": "In the car"
                },
                {
                    "href": "https://api.spotify.com/v1/browse/categories/equal",
                    "icons": [
                        {
                            "height": null,
                            "url": "https://t.scdn.co/images/084155aeaa724ea1bd393a017d67b709",
                            "width": null
                        }
                    ],
                    "id": "equal",
                    "name": "EQUAL"
                },
                {
                    "href": "https://api.spotify.com/v1/browse/categories/at_home",
                    "icons": [
                        {
                            "height": null,
                            "url": "https://t.scdn.co/images/04da469dd7be4dab96659aa1fa9f0ac9.jpeg",
                            "width": null
                        }
                    ],
                    "id": "at_home",
                    "name": "At Home"
                },
                {
                    "href": "https://api.spotify.com/v1/browse/categories/radar",
                    "icons": [
                        {
                            "height": null,
                            "url": "https://t.scdn.co/images/c6677aa51acf4121b66b9d1f231bd427.png",
                            "width": null
                        }
                    ],
                    "id": "radar",
                    "name": "RADAR"
                },
                {
                    "href": "https://api.spotify.com/v1/browse/categories/fresh_finds",
                    "icons": [
                        {
                            "height": null,
                            "url": "https://t.scdn.co/images/16e40e64d2a74fa8a0a020d456e6541d.jpeg",
                            "width": null
                        }
                    ],
                    "id": "fresh_finds",
                    "name": "Fresh Finds"
                },
                {
                    "href": "https://api.spotify.com/v1/browse/categories/mood",
                    "icons": [
                        {
                            "height": 274,
                            "url": "https://t.scdn.co/media/original/mood-274x274_976986a31ac8c49794cbdc7246fd5ad7_274x274.jpg",
                            "width": 274
                        }
                    ],
                    "id": "mood",
                    "name": "Mood"
                },
                {
                    "href": "https://api.spotify.com/v1/browse/categories/ambient",
                    "icons": [
                        {
                            "height": null,
                            "url": "https://t.scdn.co/images/9210c5a26e6a4b4da2c3ea8e5f87fff8",
                            "width": null
                        }
                    ],
                    "id": "ambient",
                    "name": "Ambient"
                },
                {
                    "href": "https://api.spotify.com/v1/browse/categories/alternative",
                    "icons": [
                        {
                            "height": null,
                            "url": "https://t.scdn.co/images/ee9451b3ed474c82b1da8f9b5eafc88f.jpeg",
                            "width": null
                        }
                    ],
                    "id": "alternative",
                    "name": "Alternative"
                },
                {
                    "href": "https://api.spotify.com/v1/browse/categories/rock",
                    "icons": [
                        {
                            "height": 274,
                            "url": "https://t.scdn.co/media/derived/rock_9ce79e0a4ef901bbd10494f5b855d3cc_0_0_274_274.jpg",
                            "width": 274
                        }
                    ],
                    "id": "rock",
                    "name": "Rock"
                },
                {
                    "href": "https://api.spotify.com/v1/browse/categories/chill",
                    "icons": [
                        {
                            "height": 274,
                            "url": "https://t.scdn.co/media/derived/chill-274x274_4c46374f007813dd10b37e8d8fd35b4b_0_0_274_274.jpg",
                            "width": 274
                        }
                    ],
                    "id": "chill",
                    "name": "Chill"
                },
                {
                    "href": "https://api.spotify.com/v1/browse/categories/inspirational",
                    "icons": [
                        {
                            "height": 274,
                            "url": "https://t.scdn.co/media/derived/icon-274x274_5ce6e0f681f0a76f9dcf9270dfd18489_0_0_274_274.jpg",
                            "width": 274
                        }
                    ],
                    "id": "inspirational",
                    "name": "Christian & Gospel"
                },
                {
                    "href": "https://api.spotify.com/v1/browse/categories/party",
                    "icons": [
                        {
                            "height": null,
                            "url": "https://t.scdn.co/images/7ee6530d5b3c4acc9a0957046bf11d63",
                            "width": null
                        }
                    ],
                    "id": "party",
                    "name": "Party"
                }
            ],
            "limit": 20,
            "next": "https://api.spotify.com/v1/browse/categories?offset=20&limit=20",
            "offset": 0,
            "previous": null,
            "total": 49
        }
    },
    "headers": {
        "content-type": "application/json; charset=utf-8",
        "cache-control": "public, max-age=600",
        "x-robots-tag": "noindex, nofollow",
        "access-control-allow-origin": "*",
        "access-control-allow-headers": "Accept, App-Platform, Authorization, Content-Type, Origin, Retry-After, Spotify-App-Version, X-Cloud-Trace-Context, client-token, content-access-token",
        "access-control-allow-methods": "GET, POST, OPTIONS, PUT, DELETE, PATCH",
        "access-control-allow-credentials": "true",
        "access-control-max-age": "604800",
        "content-encoding": "gzip",
        "strict-transport-security": "max-age=31536000",
        "x-content-type-options": "nosniff",
        "date": "Mon, 06 Dec 2021 20:19:16 GMT",
        "server": "envoy",
        "via": "HTTP/2 edgeproxy, 1.1 google",
        "alt-svc": "clear",
        "connection": "close",
        "transfer-encoding": "chunked"
    },
    "statusCode": 200
}